<?xml version="1.0" encoding="UTF-8" standalone="no"?>
<!-- Created with Inkscape (http://www.inkscape.org/) -->

<svg
   xmlns:dc="http://purl.org/dc/elements/1.1/"
   xmlns:cc="http://creativecommons.org/ns#"
   xmlns:rdf="http://www.w3.org/1999/02/22-rdf-syntax-ns#"
   xmlns:svg="http://www.w3.org/2000/svg"
   xmlns="http://www.w3.org/2000/svg"
   xmlns:sodipodi="http://sodipodi.sourceforge.net/DTD/sodipodi-0.dtd"
   xmlns:inkscape="http://www.inkscape.org/namespaces/inkscape"
   width="420mm"
   height="297mm"
   viewBox="0 0 420 297"
   version="1.1"
   id="svg8"
   inkscape:version="0.92.4 5da689c313, 2019-01-14"
   sodipodi:docname="A3-recording-sign.svg">
  <defs
     id="defs2" />
  <sodipodi:namedview
     id="base"
     pagecolor="#ffffff"
     bordercolor="#666666"
     borderopacity="1.0"
     inkscape:pageopacity="0.0"
     inkscape:pageshadow="2"
     inkscape:zoom="0.35"
     inkscape:cx="382.95329"
     inkscape:cy="519.20919"
     inkscape:document-units="mm"
     inkscape:current-layer="layer1"
     showgrid="false"
     inkscape:window-width="1362"
     inkscape:window-height="729"
     inkscape:window-x="0"
     inkscape:window-y="18"
     inkscape:window-maximized="0" />
  <metadata
     id="metadata5">
    <rdf:RDF>
      <cc:Work
         rdf:about="">
        <dc:format>image/svg+xml</dc:format>
        <dc:type
           rdf:resource="http://purl.org/dc/dcmitype/StillImage" />
        <dc:title></dc:title>
      </cc:Work>
    </rdf:RDF>
  </metadata>
  <g
     inkscape:label="Layer 1"
     inkscape:groupmode="layer"
     id="layer1">
    <text
       xml:space="preserve"
       style="font-style:normal;font-variant:normal;font-weight:normal;font-stretch:normal;font-size:16.49115181px;line-height:1.25;font-family:Erbarre;-inkscape-font-specification:Erbarre;letter-spacing:0px;word-spacing:0px;fill:#000000;fill-opacity:1;stroke:none;stroke-width:1.23683631"
       x="5.2781534"
       y="265.02466"
       id="text54"><tspan
         sodipodi:role="line"
         x="5.2781534"
         y="265.02466"
         style="font-style:normal;font-variant:normal;font-weight:bold;font-stretch:normal;font-size:92.35045624px;font-family:'HK Grotesk';-inkscape-font-specification:'HK Grotesk Bold';stroke-width:1.23683631"
         id="tspan56">recording</tspan></text>
    <text
       xml:space="preserve"
       style="font-style:normal;font-variant:normal;font-weight:normal;font-stretch:normal;font-size:16.49115181px;line-height:1.25;font-family:Erbarre;-inkscape-font-specification:Erbarre;letter-spacing:0px;word-spacing:0px;fill:#000000;fill-opacity:1;stroke:none;stroke-width:1.23683643"
       x="9.0579147"
       y="80.940315"
       id="text54-5"><tspan
         sodipodi:role="line"
         x="9.0579147"
         y="80.940315"
         style="font-style:normal;font-variant:normal;font-weight:bold;font-stretch:normal;font-size:92.35046387px;font-family:'HK Grotesk';-inkscape-font-specification:'HK Grotesk Bold';stroke-width:1.23683643"
         id="tspan56-8">RECORDING</tspan></text>
    <text
       xml:space="preserve"
       style="font-style:normal;font-variant:normal;font-weight:normal;font-stretch:normal;font-size:16.49115181px;line-height:1.25;font-family:Erbarre;-inkscape-font-specification:Erbarre;letter-spacing:0px;word-spacing:0px;fill:#000000;fill-opacity:1;stroke:none;stroke-width:1.23683643"
       x="-139.10872"
       y="170.89865"
       id="text54-5-5"><tspan
         sodipodi:role="line"
         x="-139.10872"
         y="170.89865"
         style="font-style:normal;font-variant:normal;font-weight:bold;font-stretch:normal;font-size:92.35046387px;font-family:'HK Grotesk';-inkscape-font-specification:'HK Grotesk Bold';stroke-width:1.23683643"
         id="tspan56-8-5">RECORDING</tspan></text>
  </g>
</svg>
