%!PS-Adobe-3.0
%%Creator: cairo 1.16.0 (https://cairographics.org)
%%CreationDate: Fri May 31 18:44:32 2019
%%Pages: 1
%%DocumentData: Clean7Bit
%%LanguageLevel: 2
%%DocumentMedia: 64x111mm 182 315 0 () ()
%%BoundingBox: 56 56 126 259
%%EndComments
%%BeginProlog
/languagelevel where
{ pop languagelevel } { 1 } ifelse
2 lt { /Helvetica findfont 12 scalefont setfont 50 500 moveto
  (This print job requires a PostScript Language Level 2 printer.) show
  showpage quit } if
/q { gsave } bind def
/Q { grestore } bind def
/cm { 6 array astore concat } bind def
/w { setlinewidth } bind def
/J { setlinecap } bind def
/j { setlinejoin } bind def
/M { setmiterlimit } bind def
/d { setdash } bind def
/m { moveto } bind def
/l { lineto } bind def
/c { curveto } bind def
/h { closepath } bind def
/re { exch dup neg 3 1 roll 5 3 roll moveto 0 rlineto
      0 exch rlineto 0 rlineto closepath } bind def
/S { stroke } bind def
/f { fill } bind def
/f* { eofill } bind def
/n { newpath } bind def
/W { clip } bind def
/W* { eoclip } bind def
/BT { } bind def
/ET { } bind def
/BDC { mark 3 1 roll /BDC pdfmark } bind def
/EMC { mark /EMC pdfmark } bind def
/cairo_store_point { /cairo_point_y exch def /cairo_point_x exch def } def
/Tj { show currentpoint cairo_store_point } bind def
/TJ {
  {
    dup
    type /stringtype eq
    { show } { -0.001 mul 0 cairo_font_matrix dtransform rmoveto } ifelse
  } forall
  currentpoint cairo_store_point
} bind def
/cairo_selectfont { cairo_font_matrix aload pop pop pop 0 0 6 array astore
    cairo_font exch selectfont cairo_point_x cairo_point_y moveto } bind def
/Tf { pop /cairo_font exch def /cairo_font_matrix where
      { pop cairo_selectfont } if } bind def
/Td { matrix translate cairo_font_matrix matrix concatmatrix dup
      /cairo_font_matrix exch def dup 4 get exch 5 get cairo_store_point
      /cairo_font where { pop cairo_selectfont } if } bind def
/Tm { 2 copy 8 2 roll 6 array astore /cairo_font_matrix exch def
      cairo_store_point /cairo_font where { pop cairo_selectfont } if } bind def
/g { setgray } bind def
/rg { setrgbcolor } bind def
/d1 { setcachedevice } bind def
/cairo_data_source {
  CairoDataIndex CairoData length lt
    { CairoData CairoDataIndex get /CairoDataIndex CairoDataIndex 1 add def }
    { () } ifelse
} def
/cairo_flush_ascii85_file { cairo_ascii85_file status { cairo_ascii85_file flushfile } if } def
/cairo_image { image cairo_flush_ascii85_file } def
/cairo_imagemask { imagemask cairo_flush_ascii85_file } def
/cairo_set_page_size {
  % Change paper size, but only if different from previous paper size otherwise
  % duplex fails. PLRM specifies a tolerance of 5 pts when matching paper size
  % so we use the same when checking if the size changes.
  /setpagedevice where {
    pop currentpagedevice
    /PageSize known {
      2 copy
      currentpagedevice /PageSize get aload pop
      exch 4 1 roll
      sub abs 5 gt
      3 1 roll
      sub abs 5 gt
      or
    } {
      true
    } ifelse
    {
      2 array astore
      2 dict begin
        /PageSize exch def
        /ImagingBBox null def
      currentdict end
      setpagedevice
    } {
      pop pop
    } ifelse
  } {
    pop
  } ifelse
} def
%%EndProlog
%%BeginSetup
%%EndSetup
%%Page: 1 1
%%BeginPageSetup
%%PageMedia: 64x111mm
%%PageBoundingBox: 56 56 126 259
183 315 cairo_set_page_size
%%EndPageSetup
q 56 56 70 203 rectclip
1 0 0 -1 0 315 cm q
0 g
56.691 239.074 m 56.691 234.562 57.363 230.625 58.707 227.266 c 60.004 
223.859 61.902 221.027 64.398 218.77 c 66.844 216.516 69.844 214.836 73.398
 213.73 c 76.902 212.625 80.836 212.074 85.203 212.074 c 89.043 212.074 
92.309 212.508 94.996 213.371 c 97.637 214.234 99.844 215.434 101.621 216.969
 c 103.348 218.457 104.719 220.281 105.727 222.441 c 106.734 224.555 107.477
 226.883 107.957 229.426 c 108.438 231.969 108.727 234.707 108.82 237.633
 c 108.918 240.516 108.965 243.465 108.965 246.492 c 108.965 247.594 108.941
 248.676 108.895 249.73 c 108.844 250.785 108.773 251.844 108.676 252.898
 c 107.668 253.691 l 106.035 252.059 104.523 250.859 103.133 250.09 c 101.691
 249.324 100.23 248.793 98.742 248.508 c 97.254 248.219 95.645 248.098 93.918
 248.148 c 92.188 248.195 90.172 248.219 87.867 248.219 c 87.055 248.219
 86.117 248.219 85.062 248.219 c 84.004 248.172 82.949 248.172 81.895 248.219
 c 80.836 248.266 79.828 248.387 78.867 248.578 c 77.859 248.77 76.996 249.082
 76.277 249.516 c 75.918 252.105 l 73.902 252.324 l 71.117 250.641 68.91
 248.484 67.277 245.844 c 65.598 243.156 64.758 240.156 64.758 236.844 c
 64.758 236.555 64.805 236.266 64.902 235.98 c 64.949 235.691 64.996 235.402
 65.043 235.113 c 66.27 235.113 l 67.133 236.219 68.262 237.012 69.652 237.492
 c 70.996 237.969 72.461 238.281 74.043 238.426 c 75.582 238.57 77.141 238.617
 78.727 238.57 c 80.309 238.523 81.75 238.5 83.043 238.5 c 85.348 238.5 
87.652 238.449 89.957 238.355 c 92.215 238.258 94.492 238.305 96.797 238.5
 c 98.598 237.129 l 98.668 236.34 l 98.668 233.457 98.262 231.082 97.445
 229.211 c 96.629 227.289 95.477 225.777 93.988 224.676 c 92.5 223.57 90.699
 222.801 88.59 222.371 c 86.477 221.938 84.102 221.723 81.461 221.723 c 
78.773 221.723 76.254 222.105 73.902 222.875 c 71.5 223.594 69.438 224.676
 67.707 226.113 c 65.934 227.555 64.539 229.379 63.531 231.586 c 62.523 
233.746 62.02 236.266 62.02 239.148 c 62.02 240.395 62.215 241.762 62.598
 243.25 c 62.934 244.738 63.438 246.18 64.109 247.57 c 64.734 248.961 65.5
 250.258 66.414 251.457 c 67.277 252.66 68.262 253.594 69.363 254.266 c 
70.324 254.844 71.355 255.227 72.461 255.418 c 73.516 255.609 74.523 255.945
 75.484 256.426 c 74.551 257.793 l 74.262 257.891 73.973 257.988 73.684 
258.082 c 73.348 258.129 73.035 258.156 72.75 258.156 c 70.398 258.156 68.238
 257.578 66.27 256.426 c 64.301 255.227 62.621 253.715 61.23 251.891 c 59.789
 250.02 58.684 247.953 57.918 245.699 c 57.102 243.441 56.691 241.234 56.691
 239.074 c h
56.691 239.074 m f
72.895 193.539 m 72.895 192.816 73.133 191.664 73.613 190.082 c 74.094 
188.449 74.691 186.793 75.414 185.113 c 76.133 183.434 76.926 181.969 77.789
 180.723 c 78.652 179.426 79.492 178.777 80.309 178.777 c 82.516 178.777
 84.508 179.211 86.285 180.074 c 88.062 180.938 89.598 182.113 90.895 183.602
 c 92.141 185.09 93.125 186.793 93.844 188.715 c 94.516 190.633 94.852 192.625
 94.852 194.691 c 94.852 195.219 94.781 195.699 94.637 196.129 c 94.445 
196.562 94.23 196.992 93.988 197.426 c 93.75 197.859 93.531 198.289 93.34
 198.723 c 93.148 199.105 93.004 199.539 92.91 200.02 c 94.012 200.02 95.07
 199.684 96.078 199.012 c 97.035 198.34 97.902 197.523 98.668 196.562 c 
99.391 195.555 99.965 194.473 100.398 193.32 c 100.828 192.121 101.043 191.02
 101.043 190.012 c 101.043 188.234 100.734 186.793 100.109 185.691 c 99.484
 184.539 98.812 183.602 98.094 182.883 c 97.324 182.16 96.652 181.562 96.078
 181.082 c 95.453 180.602 95.164 180.074 95.215 179.496 c 95.598 179.211
 96.004 179.043 96.438 178.992 c 96.867 178.945 97.324 178.922 97.805 178.922
 c 99.582 178.922 101.215 179.402 102.699 180.363 c 104.141 181.32 105.391
 182.523 106.445 183.961 c 107.5 185.402 108.316 187.012 108.895 188.785
 c 109.516 190.516 109.828 192.168 109.828 193.754 c 109.828 196.203 109.301
 198.34 108.246 200.16 c 107.238 201.984 105.918 203.523 104.285 204.77 
c 102.605 206.02 100.707 206.953 98.598 207.578 c 96.484 208.203 94.324 
208.516 92.117 208.516 c 89.957 208.516 87.75 208.203 85.492 207.578 c 83.188
 206.953 81.125 206.02 79.301 204.77 c 77.43 203.473 75.895 201.891 74.691
 200.02 c 73.492 198.145 72.895 195.984 72.895 193.539 c h
85.203 201.387 m 85.875 201.387 86.238 201.242 86.285 200.953 c 86.332 
200.664 86.383 200.355 86.43 200.02 c 86.43 199.633 86.574 199.297 86.859
 199.012 c 87.102 198.676 87.75 198.508 88.805 198.508 c 89.766 198.508 
90.438 198.121 90.82 197.355 c 91.203 196.586 91.398 195.793 91.398 194.977
 c 91.398 193.922 91.18 192.984 90.75 192.168 c 90.27 191.355 89.668 190.684
 88.949 190.152 c 88.18 189.625 87.34 189.242 86.43 189 c 85.469 188.715
 84.508 188.57 83.551 188.57 c 82.734 188.57 81.918 188.715 81.102 189 c
 80.238 189.289 79.469 189.723 78.797 190.297 c 78.078 190.824 77.5 191.473
 77.07 192.242 c 76.637 192.961 76.422 193.754 76.422 194.617 c 76.422 195.625
 76.707 196.539 77.285 197.355 c 77.859 198.168 78.605 198.891 79.516 199.516
 c 80.383 200.09 81.34 200.547 82.398 200.883 c 83.406 201.219 84.34 201.387
 85.203 201.387 c h
85.203 201.387 m f
73.324 161 m 73.324 157.883 73.781 155.41 74.691 153.586 c 75.559 151.715
 76.758 150.25 78.293 149.195 c 79.781 148.137 81.531 147.395 83.551 146.961
 c 85.516 146.531 87.582 146.168 89.742 145.883 c 91.852 145.594 94.012 
145.281 96.223 144.945 c 98.383 144.609 100.422 144.035 102.34 143.219 c
 103.348 142.785 104.215 142.16 104.934 141.348 c 105.605 140.48 106.398
 139.738 107.309 139.113 c 107.742 139.402 108.027 139.809 108.172 140.336
 c 108.27 140.816 108.316 141.297 108.316 141.777 c 108.316 148.258 l 108.316
 149.266 108.223 150.035 108.027 150.562 c 107.789 151.043 107.551 151.426
 107.309 151.715 c 107.07 151.953 106.852 152.168 106.66 152.363 c 106.422
 152.555 106.301 152.816 106.301 153.152 c 106.301 153.441 106.469 153.945
 106.805 154.664 c 107.141 155.387 107.523 156.227 107.957 157.188 c 108.34
 158.098 108.699 159.105 109.035 160.211 c 109.371 161.312 109.539 162.418
 109.539 163.523 c 109.539 167.027 108.629 169.859 106.805 172.02 c 104.934
 174.129 102.195 175.188 98.598 175.188 c 96.82 175.188 95.262 174.852 93.918
 174.18 c 92.523 173.504 91.371 172.617 90.461 171.516 c 89.551 170.41 88.875
 169.113 88.445 167.625 c 87.965 166.137 87.727 164.555 87.727 162.875 c
 87.727 162.297 87.82 161.746 88.012 161.219 c 88.156 160.691 88.324 160.16
 88.516 159.633 c 88.66 159.105 88.828 158.578 89.02 158.051 c 89.164 157.523
 89.238 156.992 89.238 156.465 c 89.238 156.273 89.215 156.082 89.164 155.891
 c 89.07 155.699 88.996 155.504 88.949 155.312 c 87.797 155.312 86.668 155.531
 85.566 155.961 c 84.414 156.395 83.406 156.992 82.539 157.762 c 81.676 
158.531 80.98 159.441 80.453 160.496 c 79.875 161.555 79.59 162.684 79.59
 163.883 c 79.59 165.32 79.805 166.473 80.238 167.336 c 80.668 168.152 81.148
 168.852 81.676 169.426 c 82.156 169.953 82.613 170.41 83.043 170.793 c 
83.477 171.18 83.691 171.633 83.691 172.16 c 83.691 172.977 83.285 173.387
 82.469 173.387 c 81.027 173.387 79.734 172.977 78.582 172.16 c 77.43 171.348
 76.469 170.312 75.699 169.066 c 74.934 167.816 74.355 166.473 73.973 165.035
 c 73.539 163.594 73.324 162.25 73.324 161 c h
97.805 165.754 m 100.398 165.754 l 101.07 165.754 101.691 165.586 102.27
 165.25 c 102.844 164.867 103.348 164.387 103.781 163.809 c 104.164 163.234
 104.477 162.609 104.719 161.938 c 104.91 161.266 105.004 160.617 105.004
 159.992 c 105.004 159.129 104.836 158.312 104.5 157.547 c 104.164 156.777
 103.707 156.105 103.133 155.531 c 102.559 154.906 101.887 154.426 101.117
 154.09 c 100.348 153.754 99.531 153.586 98.668 153.586 c 97.902 153.586
 97.133 153.73 96.363 154.02 c 95.551 154.258 94.828 154.641 94.203 155.168
 c 93.531 155.648 93.004 156.25 92.621 156.969 c 92.188 157.641 91.973 158.41
 91.973 159.273 c 91.973 160.043 92.141 160.809 92.477 161.578 c 92.766 
162.348 93.172 163.043 93.699 163.664 c 94.23 164.289 94.852 164.793 95.574
 165.18 c 96.293 165.562 97.035 165.754 97.805 165.754 c h
97.805 165.754 m f
72.82 127.77 m 72.82 127.336 72.965 127.047 73.254 126.902 c 73.492 126.711
 73.805 126.594 74.188 126.543 c 74.574 126.449 74.98 126.426 75.414 126.473
 c 75.797 126.473 76.109 126.473 76.348 126.473 c 77.02 126.473 77.574 126.375
 78.004 126.184 c 78.004 125.465 l 77.285 124.984 76.637 124.551 76.062 
124.168 c 75.484 123.734 75.004 123.281 74.621 122.801 c 74.188 122.32 73.852
 121.77 73.613 121.145 c 73.371 120.473 73.254 119.656 73.254 118.695 c 
73.254 116.727 73.852 115.168 75.055 114.016 c 76.254 112.816 77.836 112.215
 79.805 112.215 c 80.285 112.215 80.691 112.383 81.027 112.719 c 81.316 
113.055 81.582 113.465 81.82 113.945 c 82.062 114.426 82.324 114.902 82.613
 115.383 c 82.852 115.816 83.164 116.129 83.551 116.32 c 84.27 116.703 84.844
 116.969 85.277 117.113 c 85.707 117.258 86.141 117.328 86.574 117.328 c
 86.957 117.328 87.391 117.305 87.867 117.258 c 88.301 117.207 88.875 117.184
 89.598 117.184 c 90.414 117.184 90.82 117.594 90.82 118.406 c 90.82 119.32
 90.414 119.871 89.598 120.062 c 88.781 120.207 87.895 120.328 86.934 120.426
 c 85.926 120.473 85.012 120.641 84.195 120.93 c 83.383 121.168 82.973 121.793
 82.973 122.801 c 82.973 123.473 83.238 124.047 83.766 124.527 c 84.246 
124.961 84.844 125.297 85.566 125.535 c 86.285 125.777 87.027 125.945 87.797
 126.039 c 88.566 126.137 89.188 126.184 89.668 126.184 c 99.531 126.184
 l 100.492 126.184 101.383 126.09 102.195 125.895 c 102.965 125.656 103.66
 125.391 104.285 125.105 c 104.859 124.816 105.363 124.574 105.797 124.383
 c 106.23 124.145 106.516 124.023 106.66 124.023 c 107.043 124.023 107.332
 124.383 107.523 125.105 c 107.719 125.777 107.859 126.543 107.957 127.406
 c 108.055 128.273 108.102 129.113 108.102 129.93 c 108.102 130.746 108.102
 131.273 108.102 131.512 c 108.102 131.895 108.125 132.398 108.172 133.023
 c 108.223 133.602 108.223 134.176 108.172 134.754 c 108.078 135.328 107.91
 135.832 107.668 136.266 c 107.43 136.648 107.043 136.84 106.516 136.84 
c 106.324 136.84 106.086 136.719 105.797 136.48 c 105.508 136.238 105.148
 135.977 104.719 135.688 c 104.238 135.398 103.684 135.16 103.062 134.969
 c 102.391 134.727 101.598 134.609 100.684 134.609 c 98.285 134.656 95.934
 134.656 93.629 134.609 c 91.277 134.559 88.902 134.535 86.5 134.535 c 85.445
 134.535 84.508 134.727 83.691 135.113 c 82.828 135.449 82.086 135.832 81.461
 136.266 c 80.836 136.648 80.332 137.031 79.949 137.418 c 79.516 137.754
 79.23 137.922 79.086 137.922 c 78.844 137.922 78.605 137.703 78.363 137.273
 c 78.125 136.84 77.91 136.359 77.719 135.832 c 77.477 135.258 77.285 134.703
 77.141 134.176 c 76.949 133.648 76.781 133.289 76.637 133.098 c 76.012 
132.184 75.391 131.297 74.766 130.434 c 74.141 129.566 73.492 128.68 72.82
 127.77 c h
72.82 127.77 m f
57.195 98.734 m 57.484 97.797 l 58.012 97.559 58.875 97.367 60.078 97.223
 c 61.277 97.078 62.645 96.98 64.18 96.934 c 65.719 96.887 67.371 96.863
 69.148 96.863 c 70.926 96.863 72.629 96.887 74.262 96.934 c 75.895 96.934
 77.406 96.957 78.797 97.008 c 80.141 97.008 81.195 97.008 81.965 97.008
 c 85.469 97.008 88.949 96.98 92.406 96.934 c 95.859 96.84 99.34 96.789 
102.844 96.789 c 103.277 96.789 103.707 96.645 104.141 96.359 c 104.523 
96.07 104.91 95.758 105.293 95.422 c 105.676 95.086 106.086 94.773 106.516
 94.484 c 106.902 94.199 107.332 94.055 107.812 94.055 c 108.004 94.344 
108.148 94.895 108.246 95.711 c 108.34 96.477 108.391 97.316 108.391 98.23
 c 108.438 99.141 108.461 100.031 108.461 100.895 c 108.461 101.711 108.461
 102.336 108.461 102.766 c 108.461 103.008 108.461 103.414 108.461 103.988
 c 108.508 104.566 108.508 105.168 108.461 105.789 c 108.414 106.414 108.316
 106.965 108.172 107.445 c 107.98 107.879 107.691 108.094 107.309 108.094
 c 107.117 108.094 106.875 108 106.59 107.805 c 106.301 107.566 105.988 
107.301 105.652 107.016 c 105.316 106.727 104.98 106.461 104.645 106.223
 c 104.309 105.934 103.973 105.742 103.637 105.645 c 102.676 105.406 101.691
 105.285 100.684 105.285 c 99.629 105.285 98.621 105.285 97.66 105.285 c
 95.164 105.285 92.598 105.262 89.957 105.215 c 87.27 105.117 84.605 105.07
 81.965 105.07 c 79.277 105.07 76.637 105.117 74.043 105.215 c 71.406 105.309
 68.836 105.527 66.34 105.863 c 65.766 105.957 65.309 106.148 64.973 106.438
 c 64.59 106.727 64.254 107.039 63.965 107.375 c 63.676 107.711 63.414 108.023
 63.172 108.309 c 62.934 108.551 62.691 108.672 62.453 108.672 c 62.07 108.672
 61.805 108.406 61.66 107.879 c 61.469 107.352 61.324 106.941 61.23 106.652
 c 60.895 105.406 60.34 104.062 59.574 102.621 c 58.758 101.133 57.965 99.84
 57.195 98.734 c h
57.195 98.734 m f
72.531 80.668 m 72.727 79.902 73.348 79.18 74.406 78.508 c 75.414 77.789
 76.66 77.117 78.148 76.492 c 79.637 75.82 81.293 75.172 83.117 74.551 c
 84.895 73.926 86.621 73.301 88.301 72.676 c 89.934 72.004 91.422 71.332
 92.766 70.66 c 94.109 69.988 95.117 69.293 95.789 68.574 c 95.406 68.094
 94.758 67.566 93.844 66.988 c 92.934 66.363 91.949 65.789 90.895 65.262
 c 89.789 64.734 88.734 64.301 87.727 63.965 c 86.668 63.582 85.852 63.391
 85.277 63.391 c 84.414 63.391 83.789 63.531 83.406 63.82 c 83.02 64.062
 82.781 64.398 82.684 64.828 c 82.539 65.215 82.492 65.668 82.539 66.195
 c 82.539 66.727 82.539 67.277 82.539 67.852 c 82.539 68.238 82.445 68.551
 82.254 68.789 c 82.012 68.98 81.727 69.148 81.391 69.293 c 81.055 69.391
 80.719 69.461 80.383 69.508 c 79.996 69.559 79.684 69.582 79.445 69.582
 c 78.531 69.582 77.668 69.438 76.852 69.148 c 76.035 68.812 75.316 68.355
 74.691 67.781 c 74.07 67.203 73.566 66.531 73.18 65.766 c 72.797 64.996
 72.605 64.133 72.605 63.172 c 72.605 61.109 73.23 59.523 74.477 58.422 
c 75.727 57.27 77.355 56.691 79.371 56.691 c 80.332 56.691 81.75 57.004 
83.621 57.629 c 85.445 58.203 87.531 58.996 89.887 60.004 c 92.238 61.012
 94.758 62.215 97.445 63.605 c 100.133 64.949 102.797 66.391 105.438 67.926
 c 108.078 69.461 110.598 71.043 112.996 72.676 c 115.445 74.309 117.605
 75.918 119.477 77.5 c 121.348 79.035 122.836 80.5 123.941 81.895 c 125.043
 83.285 125.598 84.508 125.598 85.566 c 125.598 87.148 125.07 88.469 124.012
 89.523 c 122.957 90.582 121.781 91.445 120.484 92.117 c 119.574 92.02 118.613
 91.902 117.605 91.758 c 116.645 91.566 115.734 91.277 114.867 90.895 c 
114.055 90.461 113.355 89.91 112.781 89.238 c 112.254 88.516 111.988 87.582
 111.988 86.43 c 111.988 85.852 112.23 85.422 112.707 85.133 c 113.188 84.844
 113.668 84.652 114.148 84.559 c 115.156 83.188 l 115.156 82.23 114.82 81.27
 114.148 80.309 c 113.523 79.301 112.734 78.391 111.773 77.574 c 110.859
 76.758 109.852 76.062 108.75 75.484 c 107.691 74.91 106.734 74.523 105.867
 74.332 c 103.949 75.438 101.668 76.492 99.027 77.5 c 96.391 78.461 93.773
 79.516 91.18 80.668 c 88.539 81.82 86.141 83.164 83.98 84.699 c 81.773 
86.188 80.188 87.988 79.23 90.102 c 78.004 90.102 l 77.285 88.422 76.469
 86.812 75.559 85.277 c 74.598 83.742 73.59 82.203 72.531 80.668 c h
72.531 80.668 m f
Q Q
showpage
%%Trailer
%%EOF
