 Sara Bareilles,Love Song 
 The Supremes,Baby Love 
 Taylor Swift,Love Story 
 Stevie Wonder,Part Time Lover 
 Minnie Riperton,Lovin' You 
 The Righteous Brothers,You've Lost That Lovin' Feelin' 
 Herb Alpert,This Guy's In Love With You 
 En Vogue,Don't Let Go (Love) 
 Madonna,Justify My Love 
 Janet Jackson,That's The Way Love Goes 
 Celine Dion,The Power of Love 
 Donna Lewis,I Love You Always Forever 
 Stevie Wonder,I Just Called to Say I Love You 
 Whitney Houston,Greatest Love of All 
 Huey Lewis & the News,The Power of Love 
 Mariah Carey,Dreamlover 
 Diana Ross,Love Hangover 
 UB40,Can't Help Falling in Love 
 Savage Garden,I Knew I Loved You 
 Foreigner,I Want to Know What Love Is 
 Tina Turner   ,What's Love Got to Do With It 
 The Beatles,She Loves You 
 Andy Gibb,(Love Is) Thicker Than Water 
 The Partridge Family,I Think I Love You 
 Ohio Players,Love Rollercoaster 
 Whitney Houston,I Wanna Dance With Somebody 
 Captain and Tennille,Love Will Keep Us Together 
 Bobby Vinton,Roses Are Red (My Love) 
 Beyoncé,	Crazy in Love
 Lulu,To Sir With Love 
 Mariah Carey,Vision of Love 
 Roxette,It Must Have Been Love 
 Mariah Carey,Love Takes Time 
 Barbra Streisand,Woman in Love 
 Paul Mauriat,Love Is Blue 
 The Teddy Bears,To Know Him Is to Love Him 
 Queen,Crazy Little Thing Called Love 
 Celine Dion,Because You Loved Me 
 Paul McCartney and Wings,My Love 
 Leona Lewis,Bleeding Love 
 Ray Charles,I Can't Stop Loving You 
 The Emotions,Best of My Love 
 Stevie B,Because I Love You (The Postman Song) 
